{
	"data": {
		"lang": "be_BY",
		"projects": [
			{
				"items": [
					{
						"url": "https://auto.mail.ru",
						"title": "Аўта"
					},
					{
						"url": "https://bonus.mail.ru",
						"title": "Бонус"
					},
					{
						"url": "https://horo.mail.ru",
						"title": "Гороскопы"
					},
					{
						"url": "https://deti.mail.ru",
						"title": "Дети"
					},
					{
						"url": "https://dobro.mail.ru",
						"title": "Добро"
					},
					{
						"url": "https://health.mail.ru",
						"title": "Здоровье"
					},
					{
						"url": "https://calendar.mail.ru",
						"title": "Календарь"
					},
					{
						"url": "https://kino.mail.ru/",
						"title": "Кино"
					},
					{
						"url": "https://lady.mail.ru",
						"title": "Леди"
					},
					{
						"url": "https://realty.mail.ru",
						"title": "Недвижимость"
					},
					{
						"url": "https://cloud.mail.ru",
						"title": "Облако"
					},
					{
						"url": "https://otvet.mail.ru",
						"title": "Ответы"
					},
					{
						"url": "https://pogoda.mail.ru",
						"title": "Погода"
					},
					{
						"url": "https://sport.mail.ru",
						"title": "Спорт"
					},
					{
						"url": "https://tv.mail.ru",
						"title": "ТВ программа"
					},
					{
						"url": "https://torg.mail.ru",
						"title": "Товары"
					},
					{
						"url": "https://hi-tech.mail.ru",
						"title": "HiTech"
					}
				]
			},
			{
				"title": "Для бизнеса",
				"items": [
					{
						"url": "https://biz.mail.ru/mail",
						"title": "Почта для бизнеса"
					},
					{
						"url": "https://biz.mail.ru/mail/education/",
						"title": "Почта для образования"
					},
					{
						"url": "mediator.mail.ru",
						"title": "Медиатор"
					},
					{
						"url": "https://top.mail.ru",
						"title": "Рейтинг сайтов"
					},
					{
						"url": "https://target.my.com",
						"title": "myTarget"
					},
					{
						"url": "https://widget.my.com",
						"title": "myWidget"
					},
					{
						"url": "https://biz.mail.ru/hotbox/",
						"title": "Hotbox"
					},
					{
						"url": "https://biz.mail.ru/icebox/",
						"title": "Icebox"
					},
					{
						"url": "https://biz.mail.ru/teambox/",
						"title": "Teambox"
					},
					{
						"url": "https://seosan.io",
						"title": "SeoSan"
					}
				]
			},
			{
				"title": "Другие проекты",
				"items": [
					{
						"url": "https://agent.mail.ru",
						"title": "Агент Mail.Ru",
						"img": "http://r.mradx.net/img/93/70C072.png",
						"imgWidth": 16,
						"imgHeight": 16,
						"img_2x": "http://r.mradx.net/img/77/BE8BD6.png"
					},
					{
						"url": "https://amigo.mail.ru",
						"title": "Браузер \"Амиго\"",
						"img": "http://r.mradx.net/img/49/7B933D.png",
						"imgWidth": 16,
						"imgHeight": 16,
						"img_2x": "http://r.mradx.net/img/97/667CAF.png"
					},
					{
						"url": "https://youla.io",
						"title": "Юла",
						"img": "http://r.mradx.net/img/42/6E7249.png",
						"imgWidth": 16,
						"imgHeight": 16,
						"img_2x": "http://r.mradx.net/img/FA/21673A.png"
					},
					{
						"url": "https://beepcar.ru",
						"title": "Beepcar",
						"img": "http://r.mradx.net/img/47/2EA99D.png",
						"imgWidth": 16,
						"imgHeight": 16,
						"img_2x": "http://r.mradx.net/img/F8/B7BE2C.png"
					},
					{
						"url": "https://delivery-club.ru",
						"title": "Delivery Club",
						"img": "http://r.mradx.net/img/B3/DA3AFC.png",
						"imgWidth": 16,
						"imgHeight": 16,
						"img_2x": "http://r.mradx.net/img/88/E397FC.png"
					},
					{
						"url": "https://icq.com",
						"title": "ICQ",
						"img": "http://r.mradx.net/img/C6/43F10C.png",
						"imgWidth": 16,
						"imgHeight": 16,
						"img_2x": "http://r.mradx.net/img/04/53DD58.png"
					},
					{
						"url": "http://maps.me/ru/home?utm_source=mailru&utm_medium=menu&utm_campaign=main_page",
						"title": "Maps.Me",
						"img": "http://r.mradx.net/img/DB/6B0A9F.png",
						"imgWidth": 16,
						"imgHeight": 16,
						"img_2x": "http://r.mradx.net/img/2D/07FF8E.png"
					}
				]
			}
		],
		"links": [
			{
				"url": "Maps.Memail.ru/all#mobile",
				"title": "Мобильные приложения",
				"img": "http://r.mradx.net/img/00/39A623.png",
				"imgWidth": 16,
				"imgHeight": 16,
				"img_2x": "http://r.mradx.net/img/0B/A927FF.png"
			},
			{
				"url": "https://mail.ru/all",
				"title": "Список всех проектов"
			}
		]
	}
}
