{
	"data": {
		"lang": "hy_AM",
		"projects": [
			{
				"items": [
					{
						"url": "https://auto.mail.ru",
						"title": "Ավտոմեքենաներ"
					},
					{
						"url": "https://bonus.mail.ru",
						"title": "բոնուս"
					},
					{
						"url": "https://horo.mail.ru",
						"title": "Աստղագուշակ"
					},
					{
						"url": "https://deti.mail.ru",
						"title": "Երեխաներ"
					},
					{
						"url": "https://dobro.mail.ru",
						"title": "Բարիք"
					},
					{
						"url": "https://health.mail.ru",
						"title": "Առողջություն"
					},
					{
						"url": "https://calendar.mail.ru",
						"title": "Օրացույց"
					},
					{
						"url": "https://kino.mail.ru/",
						"title": "Ազդագիր"
					},
					{
						"url": "https://lady.mail.ru",
						"title": "Լեդի"
					},
					{
						"url": "https://realty.mail.ru",
						"title": "Անշարժ գույք"
					},
					{
						"url": "https://cloud.mail.ru",
						"title": "Ամպ"
					},
					{
						"url": "https://otvet.mail.ru",
						"title": "Պատասխաններ"
					},
					{
						"url": "https://pogoda.mail.ru",
						"title": "Եղանակ"
					},
					{
						"url": "https://sport.mail.ru",
						"title": "Սպորտ"
					},
					{
						"url": "https://tv.mail.ru",
						"title": "TV ծրագրեր"
					},
					{
						"url": "https://torg.mail.ru",
						"title": "Ապրանքներ"
					},
					{
						"url": "https://hi-tech.mail.ru",
						"title": "Hi-Tech"
					}
				]
			},
			{
				"title": "For Business",
				"items": [
					{
						"url": "https://biz.mail.ru/mail",
						"title": "Փոստ բիզնեսի համար"
					},
					{
						"url": "https://biz.mail.ru/mail/education/",
						"title": "Փոստ կրթության համար"
					},
					{
						"url": "mediator.mail.ru",
						"title": "Mediator"
					},
					{
						"url": "https://top.mail.ru",
						"title": "Կայքերի վարկանիշ"
					},
					{
						"url": "https://target.my.com",
						"title": "myTarget"
					},
					{
						"url": "https://widget.my.com",
						"title": "myWidget"
					},
					{
						"url": "https://biz.mail.ru/hotbox/",
						"title": "Hotbox"
					},
					{
						"url": "https://biz.mail.ru/icebox/",
						"title": "Icebox"
					},
					{
						"url": "https://biz.mail.ru/teambox/",
						"title": "Teambox"
					},
					{
						"url": "https://seosan.io",
						"title": "SeoSan"
					}
				]
			},
			{
				"items": [
					{
						"url": "https://agent.mail.ru",
						"title": "Agent Mail.Ru",
						"img": "http://r.mradx.net/img/93/70C072.png",
						"imgWidth": 16,
						"imgHeight": 16,
						"img_2x": "http://r.mradx.net/img/77/BE8BD6.png"
					},
					{
						"url": "https://amigo.mail.ru",
						"title": "\"Амиго\" դիտարկիչ",
						"img": "http://r.mradx.net/img/49/7B933D.png",
						"imgWidth": 16,
						"imgHeight": 16,
						"img_2x": "http://r.mradx.net/img/97/667CAF.png"
					},
					{
						"url": "https://youla.io",
						"title": "Youla",
						"img": "http://r.mradx.net/img/42/6E7249.png",
						"imgWidth": 16,
						"imgHeight": 16,
						"img_2x": "http://r.mradx.net/img/FA/21673A.png"
					},
					{
						"url": "https://beepcar.ru",
						"title": "Beepcar",
						"img": "http://r.mradx.net/img/47/2EA99D.png",
						"imgWidth": 16,
						"imgHeight": 16,
						"img_2x": "http://r.mradx.net/img/F8/B7BE2C.png"
					},
					{
						"url": "https://delivery-club.ru",
						"title": "Delivery Club",
						"img": "http://r.mradx.net/img/B3/DA3AFC.png",
						"imgWidth": 16,
						"imgHeight": 16,
						"img_2x": "http://r.mradx.net/img/88/E397FC.png"
					},
					{
						"url": "https://icq.com",
						"title": "ICQ",
						"img": "http://r.mradx.net/img/C6/43F10C.png",
						"imgWidth": 16,
						"imgHeight": 16,
						"img_2x": "http://r.mradx.net/img/04/53DD58.png"
					},
					{
						"url": "http://maps.me/ru/home?utm_source=mailru&utm_medium=menu&utm_campaign=main_page",
						"title": "Maps.Me",
						"img": "http://r.mradx.net/img/DB/6B0A9F.png",
						"imgWidth": 16,
						"imgHeight": 16,
						"img_2x": "http://r.mradx.net/img/2D/07FF8E.png"
					}
				]
			}
		],
		"links": [
			{
				"url": "https://mail.ru/all#mobile",
				"title": "Բջջային հավելվածներ",
				"img": "http://r.mradx.net/img/00/39A623.png",
				"imgWidth": 16,
				"imgHeight": 16,
				"img_2x": "http://r.mradx.net/img/0B/A927FF.png"
			},
			{
				"url": "https://mail.ru/all",
				"title": "Բոլոր նախագծերի ցանկը"
			}
		]
	}
}
